{
  "id": "step",
  "type": "object",
  "properties": {
    "line": {
      "type": "string"
    },
    "autoNextStep": {
      "type": "boolean"
    },
    "duration": {
      "type": "integer"
    }
  },
  "required": [
    "line",
    "autoNextStep",
    "duration"
  ]
}